Linguagem R para manipulação e visualização de dados
…
Vancine et al. (2018)

Importar dados

Formato .csv

# importar csv
si <- readr::read_csv("../03_dados/ATLANTIC_AMPHIBIANS_sites.csv")
si

# A tibble: 1,163 × 25
   id      reference_number species_number record sampled_habitat active_methods
   <chr>              <dbl>          <dbl> <chr>  <chr>           <chr>         
 1 amp1001             1001             19 ab     fo,ll           as            
 2 amp1002             1002             16 co     fo,la,ll        as            
 3 amp1003             1002             14 co     fo,la,ll        as            
 4 amp1004             1002             13 co     fo,la,ll        as            
 5 amp1005             1003             30 co     fo,ll,br        as            
 6 amp1006             1004             42 co     tp,pp,la,ll,is  <NA>          
 7 amp1007             1005             23 co     sp              as            
 8 amp1008             1005             19 co     sp,la,sw        as,sb,tr      
 9 amp1009             1005             13 ab     fo              <NA>          
10 amp1010             1006              1 ab     fo              <NA>          
# ℹ 1,153 more rows
# ℹ 19 more variables: passive_methods <chr>, complementary_methods <chr>,
#   period <chr>, month_start <dbl>, year_start <dbl>, month_finish <dbl>,
#   year_finish <dbl>, effort_months <dbl>, country <chr>, state <chr>,
#   state_abbreviation <chr>, municipality <chr>, site <chr>, latitude <dbl>,
#   longitude <dbl>, coordinate_precision <chr>, altitude <dbl>,
#   temperature <dbl>, precipitation <dbl>

Importar dados

Formato .txt

# importar txt
si <- readr::read_tsv("../03_dados/ATLANTIC_AMPHIBIANS_sites.txt")
si

# A tibble: 1,163 × 25
   id      reference_number species_number record sampled_habitat active_methods
   <chr>              <dbl>          <dbl> <chr>  <chr>           <chr>         
 1 amp1001             1001             19 ab     fo,ll           as            
 2 amp1002             1002             16 co     fo,la,ll        as            
 3 amp1003             1002             14 co     fo,la,ll        as            
 4 amp1004             1002             13 co     fo,la,ll        as            
 5 amp1005             1003             30 co     fo,ll,br        as            
 6 amp1006             1004             42 co     tp,pp,la,ll,is  <NA>          
 7 amp1007             1005             23 co     sp              as            
 8 amp1008             1005             19 co     sp,la,sw        as,sb,tr      
 9 amp1009             1005             13 ab     fo              <NA>          
10 amp1010             1006              1 ab     fo              <NA>          
# ℹ 1,153 more rows
# ℹ 19 more variables: passive_methods <chr>, complementary_methods <chr>,
#   period <chr>, month_start <dbl>, year_start <dbl>, month_finish <dbl>,
#   year_finish <dbl>, effort_months <dbl>, country <chr>, state <chr>,
#   state_abbreviation <chr>, municipality <chr>, site <chr>, latitude <dbl>,
#   longitude <dbl>, coordinate_precision <chr>, altitude <dbl>,
#   temperature <dbl>, precipitation <dbl>
…
# exportar .xlsx
install.packages("writexl")
library("writexl")

Importar dados

Formato .xlsx

# importar xlsx
si <- readxl::read_excel("../03_dados/ATLANTIC_AMPHIBIANS_sites.xlsx")
si

# A tibble: 1,163 × 25
   id      reference_number species_number record sampled_habitat active_methods
   <chr>              <dbl>          <dbl> <chr>  <chr>           <chr>         
 1 amp1001             1001             19 ab     fo,ll           as            
 2 amp1002             1002             16 co     fo,la,ll        as            
 3 amp1003             1002             14 co     fo,la,ll        as            
 4 amp1004             1002             13 co     fo,la,ll        as            
 5 amp1005             1003             30 co     fo,ll,br        as            
 6 amp1006             1004             42 co     tp,pp,la,ll,is  NA            
 7 amp1007             1005             23 co     sp              as            
 8 amp1008             1005             19 co     sp,la,sw        as,sb,tr      
 9 amp1009             1005             13 ab     fo              NA            
10 amp1010             1006              1 ab     fo              NA            
# ℹ 1,153 more rows
# ℹ 19 more variables: passive_methods <chr>, complementary_methods <chr>,
#   period <chr>, month_start <chr>, year_start <chr>, month_finish <chr>,
#   year_finish <chr>, effort_months <chr>, country <chr>, state <chr>,
#   state_abbreviation <chr>, municipality <chr>, site <chr>, latitude <dbl>,
#   longitude <dbl>, coordinate_precision <chr>, altitude <dbl>,
#   temperature <chr>, precipitation <chr>
…
05:00

Exercício 05

Solução

# exercicio 05
penguins_log <- penguins %>% 
  dplyr::mutate(bill_length_mm_log10 = log10(bill_length_mm), 
                bill_depth_mm_log10 = log10(bill_depth_mm), 
                flipper_length_mm_log10 = log10(flipper_length_mm), 
                body_mass_g_log10 = log10(body_mass_g))
penguins_log

# A tibble: 344 × 12
   species island    bill_length_mm bill_depth_mm flipper_length_mm body_mass_g
   <fct>   <fct>              <dbl>         <dbl>             <int>       <int>
 1 Adelie  Torgersen           39.1          18.7               181        3750
 2 Adelie  Torgersen           39.5          17.4               186        3800
 3 Adelie  Torgersen           40.3          18                 195        3250
 4 Adelie  Torgersen           NA            NA                  NA          NA
 5 Adelie  Torgersen           36.7          19.3               193        3450
 6 Adelie  Torgersen           39.3          20.6               190        3650
 7 Adelie  Torgersen           38.9          17.8               181        3625
 8 Adelie  Torgersen           39.2          19.6               195        4675
 9 Adelie  Torgersen           34.1          18.1               193        3475
10 Adelie  Torgersen           42            20.2               190        4250
# ℹ 334 more rows
# ℹ 6 more variables: sex <fct>, year <int>, bill_length_mm_log10 <dbl>,
#   bill_depth_mm_log10 <dbl>, flipper_length_mm_log10 <dbl>,
#   body_mass_g_log10 <dbl>
…
−+

05:00

Exercício 06

Solução

# exercicio 06
penguins_arrange <- penguins %>% 
  dplyr::arrange(-body_mass_g)
penguins_arrange

# A tibble: 344 × 8
   species island bill_length_mm bill_depth_mm flipper_length_mm body_mass_g
   <fct>   <fct>           <dbl>         <dbl>             <int>       <int>
 1 Gentoo  Biscoe           49.2          15.2               221        6300
 2 Gentoo  Biscoe           59.6          17                 230        6050
 3 Gentoo  Biscoe           51.1          16.3               220        6000
 4 Gentoo  Biscoe           48.8          16.2               222        6000
 5 Gentoo  Biscoe           45.2          16.4               223        5950
 6 Gentoo  Biscoe           49.8          15.9               229        5950
 7 Gentoo  Biscoe           48.4          14.6               213        5850
 8 Gentoo  Biscoe           49.3          15.7               217        5850
 9 Gentoo  Biscoe           55.1          16                 230        5850
10 Gentoo  Biscoe           49.5          16.2               229        5800
# ℹ 334 more rows
# ℹ 2 more variables: sex <fct>, year <int>
…
−+

05:00

Exercício 08

Solução

# exercicio 08
penguins_sample <- penguins %>% 
  dplyr::filter(body_mass_g < 5000) %>% 
  dplyr::slice_sample(prop = .7)
penguins_sample

# A tibble: 192 × 8
   species   island   bill_length_mm bill_depth_mm flipper_length_mm body_mass_g
   <fct>     <fct>             <dbl>         <dbl>             <int>       <int>
 1 Chinstrap Dream              46.4          18.6               190        3450
 2 Chinstrap Dream              51.3          18.2               197        3750
 3 Chinstrap Dream              52            20.7               210        4800
 4 Adelie    Biscoe             39.6          20.7               191        3900
 5 Chinstrap Dream              42.5          17.3               187        3350
 6 Adelie    Torgers…           38.5          17.9               190        3325
 7 Adelie    Torgers…           40.3          18                 195        3250
 8 Chinstrap Dream              48.1          16.4               199        3325
 9 Gentoo    Biscoe             45.2          13.8               215        4750
10 Adelie    Dream              37            16.5               185        3400
# ℹ 182 more rows
# ℹ 2 more variables: sex <fct>, year <int>
…
