XXX Semana de Estudos da Ecologia Introdução à linguagem R: manipulação e visualização de dados
…
```
## See spec(...) for full column specifications.
```

```
## # A tibble: 1,163 x 25
##    id    reference_number species_number record sampled_habitat
##    <chr>            <dbl>          <dbl> <chr>  <chr>          
##  1 amp1…             1001             19 ab     fo,ll          
##  2 amp1…             1002             16 co     fo,la,ll       
##  3 amp1…             1002             14 co     fo,la,ll       
##  4 amp1…             1002             13 co     fo,la,ll       
##  5 amp1…             1003             30 co     fo,ll,br       
##  6 amp1…             1004             42 co     tp,pp,la,ll,is 
##  7 amp1…             1005             23 co     sp             
##  8 amp1…             1005             19 co     sp,la,sw       
##  9 amp1…             1005             13 ab     fo             
## 10 amp1…             1006              1 ab     fo             
## # … with 1,153 more rows, and 20 more variables: active_methods <chr>,
## #   passive_methods <chr>, complementary_methods <chr>, period <chr>,
## #   month_start <dbl>, year_start <dbl>, month_finish <dbl>,
## #   year_finish <dbl>, effort_months <dbl>, country <chr>, state <chr>,
## #   state_abbreviation <chr>, municipality <chr>, site <chr>,
## #   latitude <dbl>, longitude <dbl>, coordinate_precision <chr>,
## #   altitude <dbl>, temperature <dbl>, precipitation <dbl>
```
…
```
## See spec(...) for full column specifications.
```

```
## # A tibble: 1,163 x 25
##    id    reference_number species_number record sampled_habitat
##    <chr>            <dbl>          <dbl> <chr>  <chr>          
##  1 amp1…             1001             19 ab     fo,ll          
##  2 amp1…             1002             16 co     fo,la,ll       
##  3 amp1…             1002             14 co     fo,la,ll       
##  4 amp1…             1002             13 co     fo,la,ll       
##  5 amp1…             1003             30 co     fo,ll,br       
##  6 amp1…             1004             42 co     tp,pp,la,ll,is 
##  7 amp1…             1005             23 co     sp             
##  8 amp1…             1005             19 co     sp,la,sw       
##  9 amp1…             1005             13 ab     fo             
## 10 amp1…             1006              1 ab     fo             
## # … with 1,153 more rows, and 20 more variables: active_methods <chr>,
## #   passive_methods <chr>, complementary_methods <chr>, period <chr>,
## #   month_start <dbl>, year_start <dbl>, month_finish <dbl>,
## #   year_finish <dbl>, effort_months <dbl>, country <chr>, state <chr>,
## #   state_abbreviation <chr>, municipality <chr>, site <chr>,
## #   latitude <dbl>, longitude <dbl>, coordinate_precision <chr>,
## #   altitude <dbl>, temperature <dbl>, precipitation <dbl>
```
…
```
## See spec(...) for full column specifications.
```

```
## # A tibble: 1,163 x 25
##    id    reference_number species_number record sampled_habitat
##    <chr>            <dbl>          <dbl> <chr>  <chr>          
##  1 amp1…             1001             19 ab     fo,ll          
##  2 amp1…             1002             16 co     fo,la,ll       
##  3 amp1…             1002             14 co     fo,la,ll       
##  4 amp1…             1002             13 co     fo,la,ll       
##  5 amp1…             1003             30 co     fo,ll,br       
##  6 amp1…             1004             42 co     tp,pp,la,ll,is 
##  7 amp1…             1005             23 co     sp             
##  8 amp1…             1005             19 co     sp,la,sw       
##  9 amp1…             1005             13 ab     fo             
## 10 amp1…             1006              1 ab     fo             
## # … with 1,153 more rows, and 20 more variables: active_methods <chr>,
## #   passive_methods <chr>, complementary_methods <chr>, period <chr>,
## #   month_start <dbl>, year_start <dbl>, month_finish <dbl>,
## #   year_finish <dbl>, effort_months <dbl>, country <chr>, state <chr>,
## #   state_abbreviation <chr>, municipality <chr>, site <chr>,
## #   latitude <dbl>, longitude <dbl>, coordinate_precision <chr>,
## #   altitude <dbl>, temperature <dbl>, precipitation <dbl>
```
…
# 4.6 tidyr

## **2 separate**

### separar os dados de "period" em quatro colunas dos seus valores

```r
si_separate <- si %>% 
  tidyr::separate("period", c("mo", "da", "tw", "ni"), remove = FALSE)
si_separate[, c(1, 9:13)]
```

```
## # A tibble: 1,163 x 6
##    id      period      mo    da    tw    ni   
##    <chr>   <chr>       <chr> <chr> <chr> <chr>
##  1 amp1001 mo,da,tw,ni mo    da    tw    ni   
##  2 amp1002 mo,da,tw,ni mo    da    tw    ni   
##  3 amp1003 mo,da,tw,ni mo    da    tw    ni   
##  4 amp1004 mo,da,tw,ni mo    da    tw    ni   
##  5 amp1005 mo,da,ni    mo    da    ni    <NA> 
##  6 amp1006 <NA>        <NA>  <NA>  <NA>  <NA> 
##  7 amp1007 <NA>        <NA>  <NA>  <NA>  <NA> 
##  8 amp1008 tw,ni       tw    ni    <NA>  <NA> 
##  9 amp1009 mo,da,tw,ni mo    da    tw    ni   
## 10 amp1010 mo,da,tw,ni mo    da    tw    ni   
## # … with 1,153 more rows
```
…
# 4.6 tidyr

## **3 drop_na()**

### remove as linhas com NA de todas as colunas

```r
si_drop_na <- si %>% 
  tidyr::drop_na()
si_drop_na
```

```
## # A tibble: 40 x 25
##    id    reference_number species_number record sampled_habitat
##    <chr>            <dbl>          <dbl> <chr>  <chr>          
##  1 amp1…             1011             14 co     fo,tp,ll,is    
##  2 amp1…             1028             29 co     fo             
##  3 amp1…             1031             33 co     fo,sw          
##  4 amp1…             1077             29 co     fo,pp,la,sw,is 
##  5 amp1…             1086              9 co     fo,la,is       
##  6 amp1…             1086             18 co     fo,la,is       
##  7 amp1…             1086             20 co     fo,la,is       
##  8 amp1…             1086             18 co     fo,la,is       
##  9 amp1…             1087             49 co     fo,tp,la,sw,is 
## 10 amp1…             1130             16 co     fo,ll          
## # … with 30 more rows, and 20 more variables: active_methods <chr>,
## #   passive_methods <chr>, complementary_methods <chr>, period <chr>,
## #   month_start <dbl>, year_start <dbl>, month_finish <dbl>,
## #   year_finish <dbl>, effort_months <dbl>, country <chr>, state <chr>,
## #   state_abbreviation <chr>, municipality <chr>, site <chr>,
## #   latitude <dbl>, longitude <dbl>, coordinate_precision <chr>,
## #   altitude <dbl>, temperature <dbl>, precipitation <dbl>
```
---

# 4.6 tidyr

## **3 drop_na()**
### remove as linhas com NA da coluna "year_start"

```r
si_drop_na <- si %>% 
  tidyr::drop_na(year_start)
si_drop_na
```

```
## # A tibble: 1,107 x 25
##    id    reference_number species_number record sampled_habitat
##    <chr>            <dbl>          <dbl> <chr>  <chr>          
##  1 amp1…             1001             19 ab     fo,ll          
##  2 amp1…             1002             16 co     fo,la,ll       
##  3 amp1…             1002             14 co     fo,la,ll       
##  4 amp1…             1002             13 co     fo,la,ll       
##  5 amp1…             1003             30 co     fo,ll,br       
##  6 amp1…             1005             23 co     sp             
##  7 amp1…             1005             19 co     sp,la,sw       
##  8 amp1…             1005             13 ab     fo             
##  9 amp1…             1006              1 ab     fo             
## 10 amp1…             1006              1 ab     fo             
## # … with 1,097 more rows, and 20 more variables: active_methods <chr>,
## #   passive_methods <chr>, complementary_methods <chr>, period <chr>,
## #   month_start <dbl>, year_start <dbl>, month_finish <dbl>,
## #   year_finish <dbl>, effort_months <dbl>, country <chr>, state <chr>,
## #   state_abbreviation <chr>, municipality <chr>, site <chr>,
## #   latitude <dbl>, longitude <dbl>, coordinate_precision <chr>,
## #   altitude <dbl>, temperature <dbl>, precipitation <dbl>
```
…
# 4.6 tidyr

## **4 replace_na()**

### substituir os NAs da coluna "year_start" por 0 

```r
si_replace_na <- si %>% 
  tidyr::replace_na(list(year_start = 0))
si_replace_na
```

```
## # A tibble: 1,163 x 25
##    id    reference_number species_number record sampled_habitat
##    <chr>            <dbl>          <dbl> <chr>  <chr>          
##  1 amp1…             1001             19 ab     fo,ll          
##  2 amp1…             1002             16 co     fo,la,ll       
##  3 amp1…             1002             14 co     fo,la,ll       
##  4 amp1…             1002             13 co     fo,la,ll       
##  5 amp1…             1003             30 co     fo,ll,br       
##  6 amp1…             1004             42 co     tp,pp,la,ll,is 
##  7 amp1…             1005             23 co     sp             
##  8 amp1…             1005             19 co     sp,la,sw       
##  9 amp1…             1005             13 ab     fo             
## 10 amp1…             1006              1 ab     fo             
## # … with 1,153 more rows, and 20 more variables: active_methods <chr>,
## #   passive_methods <chr>, complementary_methods <chr>, period <chr>,
## #   month_start <dbl>, year_start <dbl>, month_finish <dbl>,
## #   year_finish <dbl>, effort_months <dbl>, country <chr>, state <chr>,
## #   state_abbreviation <chr>, municipality <chr>, site <chr>,
## #   latitude <dbl>, longitude <dbl>, coordinate_precision <chr>,
## #   altitude <dbl>, temperature <dbl>, precipitation <dbl>
```
…
# 4.7 dplyr

## **1 select**

### Seleciona colunas pelo nome

```r
si_select <- si %>% 
  dplyr::select(id, longitude, latitude)
si_select
```

```
## # A tibble: 1,163 x 3
##    id      longitude latitude
##    <chr>       <dbl>    <dbl>
##  1 amp1001     -43.4    -8.68
##  2 amp1002     -38.9    -3.55
##  3 amp1003     -38.9    -3.57
##  4 amp1004     -38.9    -3.52
##  5 amp1005     -38.9    -4.28
##  6 amp1006     -36.4    -9.23
##  7 amp1007     -40.9    -3.85
##  8 amp1008     -40.9    -3.83
##  9 amp1009     -40.9    -3.84
## 10 amp1010     -35.2    -6.14
## # … with 1,153 more rows
```
…
# 4.7 dplyr

## **1 select**

### Remove as colunas pelo nome

```r
si_select <- si %>% 
  dplyr::select(-c(id, longitude, latitude))
si_select
```

```
## # A tibble: 1,163 x 22
##    reference_number species_number record sampled_habitat active_methods
##               <dbl>          <dbl> <chr>  <chr>           <chr>         
##  1             1001             19 ab     fo,ll           as            
##  2             1002             16 co     fo,la,ll        as            
##  3             1002             14 co     fo,la,ll        as            
##  4             1002             13 co     fo,la,ll        as            
##  5             1003             30 co     fo,ll,br        as            
##  6             1004             42 co     tp,pp,la,ll,is  <NA>          
##  7             1005             23 co     sp              as            
##  8             1005             19 co     sp,la,sw        as,sb,tr      
##  9             1005             13 ab     fo              <NA>          
## 10             1006              1 ab     fo              <NA>          
## # … with 1,153 more rows, and 17 more variables: passive_methods <chr>,
## #   complementary_methods <chr>, period <chr>, month_start <dbl>,
## #   year_start <dbl>, month_finish <dbl>, year_finish <dbl>,
## #   effort_months <dbl>, country <chr>, state <chr>,
## #   state_abbreviation <chr>, municipality <chr>, site <chr>,
## #   coordinate_precision <chr>, altitude <dbl>, temperature <dbl>,
## #   precipitation <dbl>
```
…
# 4.7 dplyr

## **1 select**

### Seleciona colunas por um padrão

```r
#  starts_with(), ends_with() e contains()
si_select <- si %>% 
  dplyr::select(contains("sp"))
si_select
```

```
## # A tibble: 1,163 x 1
##    species_number
##             <dbl>
##  1             19
##  2             16
##  3             14
##  4             13
##  5             30
##  6             42
##  7             23
##  8             19
##  9             13
## 10              1
## # … with 1,153 more rows
```
…
# 4.7 dplyr

## **2 mutate**

### Adiciona colunas novas ou vindas de operações

```r
# add colum record as factor
si_mutate <- si %>% 
  dplyr::mutate(record_factor = as.factor(record))
si_mutate
```

```
## # A tibble: 1,163 x 26
##    id    reference_number species_number record sampled_habitat
##    <chr>            <dbl>          <dbl> <chr>  <chr>          
##  1 amp1…             1001             19 ab     fo,ll          
##  2 amp1…             1002             16 co     fo,la,ll       
##  3 amp1…             1002             14 co     fo,la,ll       
##  4 amp1…             1002             13 co     fo,la,ll       
##  5 amp1…             1003             30 co     fo,ll,br       
##  6 amp1…             1004             42 co     tp,pp,la,ll,is 
##  7 amp1…             1005             23 co     sp             
##  8 amp1…             1005             19 co     sp,la,sw       
##  9 amp1…             1005             13 ab     fo             
## 10 amp1…             1006              1 ab     fo             
## # … with 1,153 more rows, and 21 more variables: active_methods <chr>,
## #   passive_methods <chr>, complementary_methods <chr>, period <chr>,
## #   month_start <dbl>, year_start <dbl>, month_finish <dbl>,
## #   year_finish <dbl>, effort_months <dbl>, country <chr>, state <chr>,
## #   state_abbreviation <chr>, municipality <chr>, site <chr>,
## #   latitude <dbl>, longitude <dbl>, coordinate_precision <chr>,
## #   altitude <dbl>, temperature <dbl>, precipitation <dbl>,
## #   record_factor <fct>
```
…
---

# 4.7 dplyr
## Permite manipular os dados de forma mais simples

```r
da <- si %>% 
  dplyr::select(id, state_abbreviation, species_number)
da
```

```
## # A tibble: 1,163 x 3
##    id      state_abbreviation species_number
##    <chr>   <chr>                       <dbl>
##  1 amp1001 BR-PI                          19
##  2 amp1002 BR-CE                          16
##  3 amp1003 BR-CE                          14
##  4 amp1004 BR-CE                          13
##  5 amp1005 BR-CE                          30
##  6 amp1006 BR-CE                          42
##  7 amp1007 BR-CE                          23
##  8 amp1008 BR-CE                          19
##  9 amp1009 BR-CE                          13
## 10 amp1010 BR-RN                           1
## # … with 1,153 more rows
```

---

# 4.7 dplyr
## Permite manipular os dados de forma mais simples

```r
da <- si %>% 
  dplyr::select(id, state_abbreviation, species_number) %>% 
  dplyr::filter(species_number > 5)
da
```

```
## # A tibble: 934 x 3
##    id      state_abbreviation species_number
##    <chr>   <chr>                       <dbl>
##  1 amp1001 BR-PI                          19
##  2 amp1002 BR-CE                          16
##  3 amp1003 BR-CE                          14
##  4 amp1004 BR-CE                          13
##  5 amp1005 BR-CE                          30
##  6 amp1006 BR-CE                          42
##  7 amp1007 BR-CE                          23
##  8 amp1008 BR-CE                          19
##  9 amp1009 BR-CE                          13
## 10 amp1015 BR-RN                           6
## # … with 924 more rows
```
…
# 4.7 dplyr
## Permite manipular os dados de forma mais simples

```r
da <- si %>% 
  dplyr::select(id, state_abbreviation, species_number) %>% 
  dplyr::filter(species_number > 5) %>% 
  dplyr::group_by(state_abbreviation) %>% 
  dplyr::summarise(nsp_state_abb = n())
da
```

```
## # A tibble: 23 x 2
##    state_abbreviation nsp_state_abb
##    <chr>                      <int>
##  1 AR-N                           7
##  2 BR-AL                          3
##  3 BR-BA                         63
##  4 BR-CE                          8
##  5 BR-ES                         33
##  6 BR-GO                          4
##  7 BR-MG                         91
##  8 BR-MS                          1
##  9 BR-PB                         17
## 10 BR-PE                         30
## # … with 13 more rows
```
…
# 4.7 dplyr
## Permite manipular os dados de forma mais simples

```r
da <- si %>% 
  dplyr::select(id, state_abbreviation, species_number) %>% 
  dplyr::filter(species_number > 5) %>% 
  dplyr::group_by(state_abbreviation) %>% 
  dplyr::summarise(nsp_state_abb = n()) %>% 
  dplyr::arrange(nsp_state_abb)
da
```

```
## # A tibble: 23 x 2
##    state_abbreviation nsp_state_abb
##    <chr>                      <int>
##  1 BR-MS                          1
##  2 BR-PI                          1
##  3 PY-13                          1
##  4 PY-14                          1
##  5 PY-2                           1
##  6 PY-4                           1
##  7 PY-7                           1
##  8 BR-AL                          3
##  9 BR-GO                          4
## 10 BR-SE                          4
## # … with 13 more rows
```
…
# Exercício 14
## Solução

```r
# solucao
si <- si %>% 
  dplyr::mutate(alt_log = log10(altitude),
                tem_log = log10(temperature),
                pre_log = log10(precipitation))
si[, 25:28]
```

```
## # A tibble: 1,163 x 4
##    precipitation alt_log tem_log pre_log
##            <dbl>   <dbl>   <dbl>   <dbl>
##  1           853    2.73    1.40    2.93
##  2          1318    1.18    1.42    3.12
##  3          1248    1.46    1.42    3.10
##  4          1376    1.40    1.42    3.14
##  5          1689    2.88    1.33    3.23
##  6          1249    2.87    1.31    3.10
##  7          1520    2.94    1.33    3.18
##  8          1474    2.94    1.33    3.17
##  9          1450    2.92    1.34    3.16
## 10          1332    1.97    1.40    3.12
## # … with 1,153 more rows
```
…
---

# Exercício 15
## Solução

```r
# solucao
si_ar <- si %>% 
  dplyr::arrange(-altitude)
si_ar
```

```
## # A tibble: 1,163 x 28
##    id    reference_number species_number record sampled_habitat
##    <chr>            <dbl>          <dbl> <chr>  <chr>          
##  1 amp1…             1102             25 co     fo,sw,ll,is,br 
##  2 amp1…             1142             14 co     fo,ll,is,br    
##  3 amp1…             1090             18 co     la             
##  4 amp1…             1120             31 co     fo,tp,pp,sw,is…
##  5 amp1…             1273             19 co     tp,pp,sw,ll,is…
##  6 amp1…             1068             15 co     tp             
##  7 amp1…             1059             43 co     sp,sw,is       
##  8 amp1…             1219             46 co     fo,pp,sw,ll,is…
##  9 amp1…             1109             40 co     fo,pp,la,is,br 
## 10 amp1…             1283             15 co     fo,tp,pp,ll,is 
## # … with 1,153 more rows, and 23 more variables: active_methods <chr>,
## #   passive_methods <chr>, complementary_methods <chr>, period <chr>,
## #   month_start <dbl>, year_start <dbl>, month_finish <dbl>,
## #   year_finish <dbl>, effort_months <dbl>, country <chr>, state <chr>,
## #   state_abbreviation <chr>, municipality <chr>, site <chr>,
## #   latitude <dbl>, longitude <dbl>, coordinate_precision <chr>,
## #   altitude <dbl>, temperature <dbl>, precipitation <dbl>, alt_log <dbl>,
## #   tem_log <dbl>, pre_log <dbl>
```
…
